{
    "title": {
        "data": "Каким организациям необходима лицензия ФСБ на криптографию?"
    },
    "text": {
        "data": "<span>Лицензия ФСБ России на деятельность по разработке, производству, техническому обслуживанию и распространению криптографических средств защиты информации необходима: </span><ul class='listRomb' style='margin-top: 30px;'><li>компаниям занимающихся разработкой, установкой, ремонтом, техническим обслуживанием и поставкой средств криптографической защиты информации; </li><li>компаниям занимающихся установкой, монтажом, ремонтом продажей тахографов; </li><li>удостоверяющим центрам и точкам выдачи;</li><li>операторам фискальных данных и операторам электронного документооборота;</li><li>медицинским информационным аналитическим центрам;</li><li>телекоммуникационным компаниям;</li><li>системным интеграторам и IT-компаниям; </li><li>банковским учреждениям и т.д.</li></ul>"
    },
    "title_form": {
        "data": "Получить консультацию"
    },
    "btn": {
        "data": "Получить консультацию"
    },
    "link": {
        "data": {
            "name": "Постановление Правительства РФ от 16 апреля 2012 г. № 313",
            "link": "/files/fsb/postanovlenie_N_313.pdf"
        }
    },
    "description_form": {
        "data": "Нажимая на кнопку, вы даете согласие на обработку персональных данных и соглашаетесь с политикой конфиденциальности"
    }
}
