<?xml version="1.0" encoding="utf-8"?>
<!-- Generator: Adobe Illustrator 23.0.1, SVG Export Plug-In . SVG Version: 6.00 Build 0)  -->
<svg version="1.1" id="Слой_1" xmlns="http://www.w3.org/2000/svg" xmlns:xlink="http://www.w3.org/1999/xlink" width="70" height="70" viewBox="0 0 70 70" style="enable-background:new 0 0 70 70;" xml:space="preserve">
<style type="text/css">
	.st0{fill:#0079C3;}
</style>
<g>
	<path class="st0" d="M64.7,18C64.7,18,64.7,18,64.7,18c0-0.1,0-0.1,0-0.1c0,0,0,0,0-0.1c0,0,0,0,0-0.1c0,0,0,0,0-0.1
		c0,0,0-0.1-0.1-0.1c0,0,0,0,0,0c0,0,0,0,0-0.1c0,0,0,0,0,0c0,0,0,0,0,0L51.5,0.6l0,0c0,0,0-0.1-0.1-0.1c0,0,0,0,0,0
		c0,0-0.1-0.1-0.1-0.1c0,0,0,0,0,0c0,0-0.1-0.1-0.1-0.1c0,0,0,0,0,0c0,0-0.1,0-0.1-0.1c0,0,0,0,0,0c0,0-0.1,0-0.1,0c0,0,0,0,0,0
		c0,0-0.1,0-0.1,0c0,0,0,0,0,0c0,0-0.1,0-0.1,0c0,0,0,0,0,0c-0.1,0-0.1,0-0.2,0H7.3C6.5,0,5.9,0.7,5.9,1.4v67.2
		c0,0.8,0.6,1.4,1.4,1.4h56c0.8,0,1.4-0.6,1.4-1.4V18.3c0,0,0-0.1,0-0.1C64.7,18.2,64.7,18.1,64.7,18C64.7,18.1,64.7,18.1,64.7,18
		L64.7,18z M60.4,16.9h-8.5l0-11.2L60.4,16.9z M61.8,67.2H8.7V2.9h40.2l0,15.4c0,0.8,0.6,1.4,1.4,1.4h11.5V67.2z M61.8,67.2"/>
	<path class="st0" d="M14.8,26.3c0,0.8,0.6,1.4,1.4,1.4h38.2c0.8,0,1.4-0.6,1.4-1.4c0-0.8-0.6-1.4-1.4-1.4H16.3
		C15.5,24.8,14.8,25.5,14.8,26.3L14.8,26.3z M14.8,26.3"/>
	<path class="st0" d="M16.3,19h25c0.8,0,1.4-0.6,1.4-1.4c0-0.8-0.6-1.4-1.4-1.4H16.3c-0.8,0-1.4,0.6-1.4,1.4
		C14.8,18.3,15.5,19,16.3,19L16.3,19z M16.3,19"/>
	<path class="st0" d="M16.3,36.5h38.2c0.8,0,1.4-0.6,1.4-1.4s-0.6-1.4-1.4-1.4H16.3c-0.8,0-1.4,0.6-1.4,1.4S15.5,36.5,16.3,36.5
		L16.3,36.5z M16.3,36.5"/>
	<path class="st0" d="M41.2,45.2c0.8,0,1.4-0.6,1.4-1.4s-0.6-1.4-1.4-1.4H16.3c-0.8,0-1.4,0.6-1.4,1.4s0.6,1.4,1.4,1.4H41.2z
		 M41.2,45.2"/>
	<path class="st0" d="M53.5,47.1L41.4,57.7l-3.5-4.7c-0.5-0.6-1.4-0.8-2-0.3c-0.6,0.5-0.8,1.4-0.3,2l4.4,5.9c0.2,0.3,0.6,0.5,1,0.6
		c0,0,0.1,0,0.1,0c0.3,0,0.7-0.1,0.9-0.4l13.2-11.7c0.6-0.5,0.7-1.4,0.1-2C55,46.6,54.1,46.5,53.5,47.1L53.5,47.1z M53.5,47.1"/>
</g>
</svg>
