<svg width="20" height="20" viewBox="0 0 20 20" fill="none" xmlns="http://www.w3.org/2000/svg">
<rect width="20" height="20" fill="black" fill-opacity="0"/>
<rect width="20" height="20" fill="black" fill-opacity="0"/>
<rect width="20" height="20" fill="black" fill-opacity="0"/>
<rect width="20" height="20" fill="black" fill-opacity="0"/>
<rect width="20" height="20" fill="black" fill-opacity="0"/>
<rect width="20" height="20" fill="black" fill-opacity="0"/>
<rect width="20" height="20" fill="black" fill-opacity="0"/>
<path d="M10 0C4.48589 0 0 4.486 0 10C0 15.514 4.48589 20 10 20C15.5141 20 20 15.5141 20 10C20 4.48595 15.5141 0 10 0ZM14.2053 16.6786L13.7743 15.9373C13.7246 15.8518 13.6321 15.7986 13.5329 15.7986C13.4835 15.7986 13.4367 15.8114 13.3935 15.8365C13.3291 15.8739 13.2832 15.9341 13.2642 16.0061C13.2453 16.078 13.2553 16.1531 13.2927 16.2175L13.7242 16.9597C12.7602 17.4777 11.6765 17.8008 10.5263 17.8771V16.83C10.5263 16.5394 10.2906 16.3037 10 16.3037C9.70937 16.3037 9.47368 16.5394 9.47368 16.83V17.8769C8.34047 17.8019 7.27189 17.4868 6.31847 16.9821L6.74537 16.2374C6.78237 16.1728 6.79205 16.0978 6.77258 16.0259C6.75311 15.9541 6.70684 15.8942 6.64232 15.8572C6.59947 15.8326 6.553 15.8202 6.50421 15.8202C6.40442 15.8202 6.31158 15.8739 6.26195 15.9603L5.83553 16.7042C4.88453 16.1112 4.068 15.3221 3.44358 14.3932L4.34821 13.8709C4.59989 13.7256 4.68616 13.4037 4.54079 13.152C4.39547 12.9004 4.07358 12.8141 3.82189 12.9595L2.916 13.4825C2.43937 12.5167 2.15463 11.4404 2.11158 10.303L2.97105 10.3004C3.04547 10.3002 3.11532 10.2709 3.16774 10.2182C3.22016 10.1654 3.24895 10.0954 3.24868 10.0209C3.24821 9.86779 3.12321 9.74321 2.97011 9.74321L2.10968 9.74584C2.14647 8.59063 2.43263 7.49742 2.91595 6.51811L3.82184 7.04111C3.90468 7.08895 3.99516 7.11168 4.08442 7.11168C4.26632 7.11168 4.44326 7.01732 4.54074 6.84847C4.68611 6.59674 4.59984 6.27484 4.34816 6.12953L3.44353 5.60726C4.05895 4.69163 4.86105 3.91174 5.79463 3.32179L6.22558 4.06305C6.25053 4.10589 6.28474 4.14005 6.32742 4.16458C6.41258 4.21332 6.52053 4.21384 6.60632 4.16389C6.67074 4.12647 6.71668 4.06621 6.73568 3.99426C6.75474 3.92237 6.74458 3.84737 6.70721 3.78305L6.27574 3.04084C7.23989 2.52279 8.32347 2.19958 9.47363 2.12347V3.17026C9.47363 3.46089 9.70932 3.69658 9.99995 3.69658C10.2905 3.69658 10.5263 3.46089 10.5263 3.17026V2.12347C11.6594 2.19842 12.7279 2.51347 13.6814 3.01826L13.2545 3.76295C13.1781 3.89621 13.2244 4.06679 13.3576 4.14316C13.4004 4.16768 13.4468 4.18016 13.4957 4.18016C13.5955 4.18016 13.6883 4.12647 13.7378 4.04011L14.1643 3.29616C15.1154 3.88905 15.9319 4.67832 16.5564 5.60716L15.6517 6.12942C15.4 6.27474 15.3138 6.59663 15.4592 6.84837C15.5567 7.01721 15.7336 7.11158 15.9155 7.11158C16.0047 7.11158 16.0953 7.08884 16.1781 7.041L17.0839 6.51795C17.5607 7.48363 17.8453 8.56005 17.8884 9.69742L17.0289 9.70005C16.9545 9.70026 16.8846 9.72947 16.8323 9.78221C16.7799 9.835 16.7511 9.905 16.7514 9.97942C16.7517 10.0787 16.8054 10.1711 16.8918 10.2206C16.9336 10.2446 16.9812 10.2571 17.0298 10.2571H17.0307L17.8904 10.2545C17.8536 11.4097 17.5674 12.5029 17.0841 13.4822L16.1782 12.9592C15.9264 12.8138 15.6047 12.9001 15.4593 13.1518C15.3139 13.4035 15.4002 13.7254 15.6519 13.8707L16.5565 14.3929C15.9409 15.3086 15.1389 16.0885 14.2053 16.6786Z" fill="white"/>
<path d="M14.2617 7.08315L10.8858 8.95621C10.7321 8.87552 10.5576 8.82926 10.3718 8.82926C10.1861 8.82926 10.0115 8.87547 9.85778 8.95621L6.48193 7.08315C6.16278 6.90599 5.7603 7.02126 5.58309 7.34047C5.40604 7.65968 5.5212 8.0621 5.84051 8.23926L9.28488 10.1504C9.38441 10.6602 9.83288 11.0449 10.3717 11.0449C10.9106 11.0449 11.3591 10.6601 11.4586 10.1504L14.9028 8.23926C15.2221 8.06215 15.3372 7.65973 15.1602 7.34047C14.9834 7.0212 14.581 6.90599 14.2617 7.08315Z" fill="white"/>
</svg>
