<svg width="70" height="70" viewBox="0 0 70 70" fill="none" xmlns="http://www.w3.org/2000/svg">
<rect width="70" height="70" fill="black" fill-opacity="0"/>
<rect width="70" height="70" fill="black" fill-opacity="0"/>
<rect width="70" height="70" fill="black" fill-opacity="0"/>
<rect width="70" height="70" fill="black" fill-opacity="0"/>
<rect width="70" height="70" fill="black" fill-opacity="0"/>
<rect width="70" height="70" fill="black" fill-opacity="0"/>
<path d="M66.9764 15.0607L65.2781 14.5303C64.8535 14.4243 64.4289 14.3182 63.8982 14.3182C61.9876 14.3182 60.2894 15.5909 59.6525 17.3939L58.6972 20.2575V18.1363V18.0303C58.6972 17.7121 58.4849 17.3939 58.2726 17.1818L40.8652 0.318207C40.6529 0.106069 40.3344 0 40.1221 0H6.05008C5.41317 0 4.98871 0.424277 4.98871 1.06055V4.34841H1.06138C0.424466 4.34841 0 4.77269 0 5.40896V68.9395C0 69.5759 0.424607 70 1.06138 70H52.647C53.2839 70 53.7084 69.5757 53.7084 68.9395V65.6516H57.6357C58.2726 65.6516 58.6971 65.2273 58.6971 64.591V50.2728L61.6691 46.2425L61.7752 45.9243L69.736 20.5757C70.5852 18.2425 69.3116 15.803 66.9764 15.0607ZM41.1835 3.60607L55.0882 16.9698H41.1835V3.60607ZM51.5856 67.8789H2.12275V6.46965H4.98857V64.591C4.98857 65.2275 5.41317 65.6516 6.04994 65.6516H51.5855L51.5856 67.8789ZM56.6805 63.5305H56.5743H7.11146V2.12124H39.0606V18.0303C39.0606 18.6668 39.4852 19.0909 40.122 19.0909H56.6803V27.0455L51.6916 42.7425V43.0607L51.9039 56.5305C51.9039 56.9548 52.2224 57.379 52.647 57.485C53.0716 57.591 53.6022 57.485 53.8145 57.0607L56.6803 53.2425L56.6805 63.5305ZM53.9207 53.2425L53.7084 44.4395L59.0155 46.1364L53.9207 53.2425ZM67.8256 19.9394L60.1832 44.2275L54.0268 42.2123L61.6692 18.0303C62.0938 16.8637 63.3675 16.1212 64.535 16.5455L66.2333 17.0759C67.5071 17.3939 68.25 18.7728 67.8256 19.9394Z" fill="#1279BE"/>
<path d="M14.3292 19.0902H29.6139C30.2508 19.0902 30.6753 18.6659 30.6753 18.0296V7.21143C30.6753 6.57501 30.2507 6.15088 29.6139 6.15088H14.3292C13.6923 6.15088 13.2678 6.57516 13.2678 7.21143V18.0296C13.2678 18.56 13.7986 19.0902 14.3292 19.0902ZM15.3907 8.27198H28.5526V16.9689H15.3907V8.27198Z" fill="#1279BE"/>
<path d="M12.2065 29.0604H44.474C45.1109 29.0604 45.5354 28.6361 45.5354 27.9999C45.5354 27.3636 45.1108 26.9395 44.474 26.9395H12.2065C11.5695 26.9395 11.1451 27.3637 11.1451 27.9999C11.1449 28.6361 11.5695 29.0604 12.2065 29.0604Z" fill="#1279BE"/>
<path d="M12.2065 36.8029H44.474C45.1109 36.8029 45.5354 36.3787 45.5354 35.7425C45.5354 35.1063 45.1108 34.6821 44.474 34.6821H12.2065C11.5695 34.6821 11.1451 35.1063 11.1451 35.7425C11.1451 36.3787 11.5695 36.8029 12.2065 36.8029Z" fill="#1279BE"/>
<path d="M12.2065 44.5453H44.474C45.1109 44.5453 45.5354 44.1211 45.5354 43.4849C45.5354 42.8487 45.1108 42.4244 44.474 42.4244H12.2065C11.5695 42.4244 11.1451 42.8487 11.1451 43.4849C11.1451 44.1211 11.5695 44.5453 12.2065 44.5453Z" fill="#1279BE"/>
<path d="M45.4293 51.2274C45.4293 50.591 45.0046 50.1669 44.3679 50.1669H12.2065C11.5695 50.1669 11.1451 50.5912 11.1451 51.2274C11.1451 51.8635 11.5697 52.2878 12.2065 52.2878H44.474C45.0046 52.2878 45.4293 51.7575 45.4293 51.2274Z" fill="#1279BE"/>
<path d="M48.932 57.9092H32.9043C32.2674 57.9092 31.843 58.3335 31.843 58.9697C31.843 59.6059 32.2676 60.0301 32.9043 60.0301H48.8258C49.4627 60.0301 49.8872 59.6059 49.8872 58.9697C49.8872 58.3335 49.4627 57.9092 48.932 57.9092Z" fill="#1279BE"/>
</svg>
