<svg width="70" height="70" viewBox="0 0 70 70" fill="none" xmlns="http://www.w3.org/2000/svg">
<rect width="70" height="70" fill="black" fill-opacity="0"/>
<path d="M35 0C15.6771 0 0 15.6771 0 35C0 54.3229 15.6771 70 35 70C54.3229 69.9854 69.9854 54.3229 70 35C70 15.6771 54.3229 0 35 0ZM35 67.6667C16.9604 67.6667 2.33333 53.0396 2.33333 35C2.33333 16.9604 16.9604 2.33333 35 2.33333C53.0396 2.34792 67.6521 16.9604 67.6667 35C67.6667 53.0396 53.0396 67.6667 35 67.6667Z" fill="#1279BE"/>
<path d="M36.1667 5.83331H33.8333V12.8333H36.1667V5.83331Z" fill="#1279BE"/>
<path d="M31.0902 6.07156L28.7922 6.47614L29.1968 8.77409L31.4948 8.36952L31.0902 6.07156Z" fill="#1279BE"/>
<path d="M26.1155 7.19666L23.9231 7.99536L24.7218 10.1878L26.9142 9.38906L26.1155 7.19666Z" fill="#1279BE"/>
<path d="M17.1475 11.9029L15.3596 13.4023L16.859 15.1901L18.6469 13.6907L17.1475 11.9029Z" fill="#1279BE"/>
<path d="M13.4048 15.362L11.9054 17.1498L13.6932 18.6492L15.1926 16.8614L13.4048 15.362Z" fill="#1279BE"/>
<path d="M7.9927 23.9167L7.194 26.1091L9.3864 26.9078L10.1851 24.7154L7.9927 23.9167Z" fill="#1279BE"/>
<path d="M6.49274 28.7859L6.08835 31.0842L8.38645 31.4885L8.79084 29.1903L6.49274 28.7859Z" fill="#1279BE"/>
<path d="M8.36837 38.5008L6.07065 38.9054L6.47522 41.2031L8.77295 40.7985L8.36837 38.5008Z" fill="#1279BE"/>
<path d="M9.38853 43.0849L7.19659 43.8848L7.99646 46.0767L10.1884 45.2768L9.38853 43.0849Z" fill="#1279BE"/>
<path d="M11.1747 47.4078L9.15384 48.5742L10.3203 50.5951L12.3412 49.4287L11.1747 47.4078Z" fill="#1279BE"/>
<path d="M13.6932 51.3552L11.905 52.8541L13.4039 54.6424L15.1922 53.1435L13.6932 51.3552Z" fill="#1279BE"/>
<path d="M16.8635 54.8113L15.3645 56.5996L17.1528 58.0985L18.6517 56.3103L16.8635 54.8113Z" fill="#1279BE"/>
<path d="M24.7096 59.8405L23.909 62.0322L26.1007 62.8327L26.9013 60.641L24.7096 59.8405Z" fill="#1279BE"/>
<path d="M29.1794 61.2148L28.7748 63.5125L31.0726 63.9171L31.4771 61.6194L29.1794 61.2148Z" fill="#1279BE"/>
<path d="M40.8055 61.2294L38.5074 61.6337L38.9118 63.932L41.2099 63.5276L40.8055 61.2294Z" fill="#1279BE"/>
<path d="M45.2785 59.8121L43.0861 60.6108L43.8848 62.8032L46.0772 62.0045L45.2785 59.8121Z" fill="#1279BE"/>
<path d="M53.1382 54.8102L51.3504 56.3096L52.8498 58.0974L54.6376 56.598L53.1382 54.8102Z" fill="#1279BE"/>
<path d="M56.3089 51.3489L54.8095 53.1367L56.5973 54.6361L58.0967 52.8483L56.3089 51.3489Z" fill="#1279BE"/>
<path d="M60.6191 43.0906L59.8204 45.283L62.0128 46.0817L62.8115 43.8893L60.6191 43.0906Z" fill="#1279BE"/>
<path d="M61.6099 38.5178L61.2053 40.8156L63.503 41.2201L63.9076 38.9224L61.6099 38.5178Z" fill="#1279BE"/>
<path d="M63.5187 28.7909L61.2208 29.1943L61.6242 31.4923L63.9222 31.0889L63.5187 28.7909Z" fill="#1279BE"/>
<path d="M62.0039 23.9229L59.8119 24.7227L60.6118 26.9147L62.8037 26.1148L62.0039 23.9229Z" fill="#1279BE"/>
<path d="M56.6006 15.3603L54.8123 16.8593L56.3112 18.6475L58.0995 17.1486L56.6006 15.3603Z" fill="#1279BE"/>
<path d="M52.8518 11.903L51.3528 13.6912L53.1411 15.1902L54.64 13.4019L52.8518 11.903Z" fill="#1279BE"/>
<path d="M43.8799 7.21003L43.0793 9.40173L45.271 10.2023L46.0716 8.0106L43.8799 7.21003Z" fill="#1279BE"/>
<path d="M38.9228 6.0661L38.5191 8.3642L40.8172 8.76786L41.2209 6.46976L38.9228 6.0661Z" fill="#1279BE"/>
<path d="M10.3126 19.4114L9.1459 21.4321L13.1871 23.7653L14.3538 21.7447L10.3126 19.4114Z" fill="#1279BE"/>
<path d="M13.2079 46.2406L9.16611 48.5735L10.3325 50.5944L14.3743 48.2615L13.2079 46.2406Z" fill="#1279BE"/>
<path d="M36.1667 57.1667H33.8333V64.1667H36.1667V57.1667Z" fill="#1279BE"/>
<path d="M56.7863 46.2431L55.6196 48.2638L59.6608 50.5971L60.8275 48.5764L56.7863 46.2431Z" fill="#1279BE"/>
<path d="M59.686 19.4066L55.6442 21.7395L56.8107 23.7604L60.8525 21.4275L59.686 19.4066Z" fill="#1279BE"/>
<path d="M21.738 55.6242L19.4052 59.666L21.4261 60.8324L23.7589 56.7906L21.738 55.6242Z" fill="#1279BE"/>
<path d="M48.2571 55.6408L46.2364 56.8074L48.5697 60.8486L50.5903 59.682L48.2571 55.6408Z" fill="#1279BE"/>
<path d="M12.8333 33.8333H5.83334V36.1666H12.8333V33.8333Z" fill="#1279BE"/>
<path d="M64.2104 33.8333H57.2104V36.1666H64.2104V33.8333Z" fill="#1279BE"/>
<path d="M48.5815 9.16523L46.2486 13.207L48.2695 14.3735L50.6024 10.3317L48.5815 9.16523Z" fill="#1279BE"/>
<path d="M21.4264 9.16665L19.4057 10.3333L21.739 14.3745L23.7596 13.2079L21.4264 9.16665Z" fill="#1279BE"/>
<path d="M38.2958 31.7042C36.4583 29.9396 33.5563 29.9396 31.7042 31.7042C30.8292 32.5792 30.3333 33.7604 30.3333 35C30.3333 37.5813 32.4188 39.6667 35 39.6667C36.2396 39.6667 37.4208 39.1708 38.2958 38.2958C40.1188 36.4875 40.1188 33.5271 38.2958 31.7042ZM36.6479 36.6479C35.7292 37.5229 34.2708 37.5229 33.3521 36.6479C32.9146 36.2104 32.6667 35.6125 32.6667 35C32.6667 33.7167 33.7167 32.6667 35 32.6667C35.6125 32.6667 36.2104 32.9146 36.6479 33.3521C37.5521 34.2563 37.5521 35.7438 36.6479 36.6479Z" fill="#1279BE"/>
<path d="M47.3673 20.9857L36.643 31.71L38.2929 33.3599L49.0172 22.6356L47.3673 20.9857Z" fill="#1279BE"/>
<path d="M25.9308 24.2795L24.2809 25.9294L31.7054 33.3538L33.3553 31.7039L25.9308 24.2795Z" fill="#1279BE"/>
</svg>
