<svg width="70" height="70" viewBox="0 0 70 70" fill="none" xmlns="http://www.w3.org/2000/svg">
<rect width="70" height="70" fill="black" fill-opacity="0"/>
<path d="M70 32.6089H66.6074V17.1595C66.6074 13.4556 63.5637 10.4424 59.8223 10.4424H55.2274L50.5252 2.07298C49.8086 0.793906 48.4448 0 46.9657 0C46.2762 0 45.5923 0.176005 44.9884 0.50774L26.9426 10.4422H6.78515C3.04375 10.4422 0 13.4554 0 17.1593V63.2829C0 66.9868 3.04375 70 6.78515 70H59.8223C63.5637 70 66.6074 66.9868 66.6074 63.2829V49.7372H70V32.6089ZM59.8223 13.1291C61.912 13.1291 63.6192 14.7008 63.8485 16.7119H58.7488L56.7375 13.1291H59.8223ZM46.3088 2.85601C46.9452 2.50275 47.8016 2.74982 48.153 3.37734L55.6438 16.7107H21.1399L46.3088 2.85601ZM63.8933 63.2829C63.8933 65.505 62.0666 67.3133 59.8221 67.3133H6.78515C4.54061 67.3133 2.71393 65.505 2.71393 63.2829V17.1595C2.71393 14.9375 4.54061 13.1291 6.78515 13.1291H22.0626L15.5543 16.7122H7.63335C6.88292 16.7122 6.27628 17.314 6.27628 18.0556C6.27628 18.7973 6.88292 19.3991 7.63335 19.3991H10.6731H60.2579H63.8933V32.6101H53.9693C49.3607 32.6101 45.6101 36.3234 45.6101 40.8855V41.4633C45.6101 46.0256 49.361 49.7387 53.9693 49.7387H63.8933V63.2829ZM67.2859 47.0505H66.6074H53.9693C50.8563 47.0505 48.324 44.5438 48.324 41.4618V40.8841C48.324 37.8023 50.8561 35.2954 53.9693 35.2954H66.6074H67.2859V47.0505ZM58.1259 41.2833C58.1259 42.9223 56.7851 44.2495 55.1296 44.2495C53.474 44.2495 52.1334 42.9221 52.1334 41.2833C52.1334 39.6445 53.4742 38.3171 55.1296 38.3171C56.7853 38.3169 58.1259 39.6455 58.1259 41.2833Z" fill="#1279BE"/>
</svg>
