{
    "mail_title": {
        "data": "Напишите нам"
    },
    "titles": {
        "data": [
            {
                "name": "Вступление в СРО"
            },
            {
                "name": "Лицензирование"
            },
            {
                "name": "Обучение"
            },
            {
                "name": "Аттестация и аккредитация"
            },
            {
                "name": "Сертификация"
            },
            {
                "name": "Тендерное сопровождение"
            }
        ]
    },
    "sro_title": {
        "data": "Вступление в СРО"
    },
    "sros": {
        "data": [
            {
                "name": "Строительство",
                "link": "#"
            },
            {
                "name": "Проектирование",
                "link": "#"
            },
            {
                "name": "Инженерные изыскания",
                "link": "#"
            }
        ]
    },
    "license_title": {
        "data": "Лицензирование"
    },
    "licenses": {
        "data": [
            {
                "name": "Лицензия Минкультуры",
                "link": "#"
            },
            {
                "name": "Лицензия МЧС",
                "link": "#"
            },
            {
                "name": "Лицензия ФСБ",
                "link": "#"
            },
            {
                "name": "Лицензия ФСТЭК",
                "link": "#"
            },
            {
                "name": "Лицензия Роспотребнадзора",
                "link": "#"
            }
        ]
    },
    "training_title": {
        "data": "Обучение"
    },
    "trainings": {
        "data": [
            {
                "name": "Повышение квалификации",
                "link": "#"
            },
            {
                "name": "Охрана труда",
                "link": "#"
            },
            {
                "name": "Пожарная безопасность",
                "link": "#"
            },
            {
                "name": "Аттестация Ростехнадзора",
                "link": "#"
            },
            {
                "name": "Квалификационная аттестация",
                "link": "#"
            },
            {
                "name": "Аттестация НАКС",
                "link": "#"
            },
            {
                "name": "Аттестация по рабочим специальностям",
                "link": "#"
            },
            {
                "name": "Профессиональня переподготовка",
                "link": "#"
            }
        ]
    },
    "attestation_title": {
        "data": "Аттестация и аккредитация"
    },
    "attestations": {
        "data": [
            {
                "name": "Аттестация автоматизированного рабочего места",
                "link": "#"
            },
            {
                "name": "Аттестация защищаемого помещения",
                "link": "#"
            },
            {
                "name": "Аттестация информационных систем",
                "link": "#"
            },
            {
                "name": "Аттестация НАКС",
                "link": "#"
            },
            {
                "name": "Аттестация (аккредитация) лаборатории неразрушающего контроля (ЛНК)",
                "link": "#"
            },
            {
                "name": "Аттестация (аккредитация) испытательной лаборатории (ЛРИ)",
                "link": "#"
            },
            {
                "name": "Регистрация электролаборатории",
                "link": "#"
            }
        ]
    },
    "certification_title": {
        "data": "Сертификация"
    },
    "certifications": {
        "data": [
            {
                "name": "Сертификат ISO 9001",
                "link": "#"
            },
            {
                "name": "Сертификат ISO 14001",
                "link": "#"
            },
            {
                "name": "Сертификат OHSAS 18001",
                "link": "#"
            },
            {
                "name": "Сертификат ISO 27001",
                "link": "#"
            },
            {
                "name": "Сертификат ISO 50001",
                "link": "#"
            },
            {
                "name": "Внедрение системы менеджмента",
                "link": "#"
            }
        ]
    },
    "tender_title": {
        "data": "Тендерное сопровождение"
    },
    "tenders": {
        "data": [
            {
                "name": "Получение ЭЦП",
                "link": "#"
            },
            {
                "name": "Аккредитация на площадках",
                "link": "#"
            },
            {
                "name": "Поиск и анализ тендеров",
                "link": "#"
            },
            {
                "name": "Консультация",
                "link": "#"
            },
            {
                "name": "Подача документов",
                "link": "#"
            },
            {
                "name": "Сопровождение торгов",
                "link": "#"
            },
            {
                "name": "Обучение",
                "link": "#"
            }
        ]
    }
}