{
    "title": {
        "data": "Каким организациям необходима лицензия ФСТЭК на разработку и производство СЗКИ?"
    },
    "text": {
        "data": "<span>Лицензии ФСТЭК России на <b>деятельность по разработке и производству средств защиты конфиденциальной информации</b> необходима:</span><span><ul class='listRomb' style='margin-top: 30px;'><li>компаниям, планирующим заниматься разработкой и(или) производством программных и (или) технических средств защиты конфиденциальной информации;</li><li>компаниям, планирующим сертифицировать программное и (или) техническое средство защиты конфиденциальной информации;</li><li>системным интеграторам и IT-компаниям;</li></ul></span>"
    },
    "title_form": {
        "data": "Получить консультацию"
    },
    "btn": {
        "data": "Получить консультацию"
    },
    "link": {
        "data": {
            "name": "",
            "link": ""
        }
    },
    "description_form": {
        "data": "Нажимая на кнопку, вы даете согласие на обработку персональных данных и соглашаетесь с политикой конфиденциальности"
    },
    "answer": {
        "data": true
    },
    "position": {
        "data": "reverse"
    },
    "form": {
        "data": {
            "title": "Заполните заявку и получите",
            "sale": "специальное предложение"
        }
    },
    "title_answer": {
        "data": "Получить коммерческое предложение"
    },
    "interactive": {
        "data": [
            {
                "title": "Какие виды деятельности вам необходимо получить?",
                "id": "one",
                "order": 1,
                "type": "radio",
                "questions": [
                    {
                        "value": "Разработка и производство программных средств защиты конфиденциальной информации;",
                        "target": "level_2"
                    },
                    {
                        "value": "Разработка и производство технических средств защиты конфиденциальной информации;",
                        "target": "level_2"
                    },
                    {
                        "value": "Разработка, производство программных и технических средств защиты конфиденциальной информации;",
                        "target": "level_2"
                    },
                    {
                        "value": "Мне необходима консультация по выбору видов деятельности;",
                        "target": "level_2"
                    }
                ]
            },
            {
                "title": "Впервые планируете получить лицензию?",
                "id": "level_2",
                "order": 2,
                "target": "level_3",
                "type": "checkbox",
                "questions": [
                    {
                        "value": "Впервые планируете получить лицензию?",
                        "target": "level_3"
                    },
                    {
                        "value": "Планируете переоформить, истек/истекает срок действия?",
                        "target": "level_3"
                    },
                    {
                        "value": "Наличие помещений, принадлежащих на праве собственности или аренды?",
                        "target": "level_3"
                    },
                    {
                        "value": "Наличие в штате на основном месте работы 3-х квалифицированных специалистов, имеющих лицензионный стаж не менее 3-х лет?",
                        "target": "level_3"
                    },
                    {
                        "value": "Наличие в компании системы производственного контроля, нормативно-методических документов (НМД) ФСТЭК России, национальных стандартов и методические документы в сфере защиты информации, ГОСТ?",
                        "target": "level_3"
                    },
                    {
                        "value": "Наличие аттестованного автоматизированного рабочего места (АРМ) и защищаемого помещения (ЗП), программных средств, технологического, испытательного, контрольно-измерительного оборудования, необходимых для осуществления лицензируемой деятельности?",
                        "target": "level_3"
                    },
                    {
                        "value": "Наличие в компании «Информационно правового сопровождения ГАРАНТ или Консультант»?",
                        "target": "level_3"
                    },
                    {
                        "value": "Наличие принадлежащего соискателю лицензии на праве собственности или ином законном основании оборудования, необходимого для выполнения работ и (или) оказания услуг:<ul class='listRomb' style='margin-top: 20px;'><li>производственного и испытательного оборудования; </li><li>измерительных приборов, прошедших в установленном законодательством Российской Федерации порядке метрологическую поверку (калибровку); </li><li>программных (программно-технических) средств, включая средства контроля эффективности защиты информации, сертифицированных по требованиям безопасности информации, а также средств контроля (анализа) исходных текстов программн</li>",
                        "target": "level_3"
                    }
                ]
            },
            {
                "title": "Территориальное место расположение?",
                "id": "level_3",
                "order": 3,
                "target": "level_4",
                "type": "text",
                "questions": [
                    {
                        "target": "sendForm",
                        "required": "true"
                    }
                ]
            },
            {
                "title": "Место планируемого осуществления деятельности?",
                "id": "level_4",
                "order": 4,
                "target": "sendForm",
                "type": "text",
                "questions": [
                    {
                        "target": "sendForm",
                        "required": "false"
                    }
                ]
            }
        ]
    }        
}
