{
    "title": {
        "data": "Документы необходимые для лицензирования"
    },
    "text": {
        "data": "<span><ul class='listRomb'><li>заявление о предоставлении лицензии с приложением;</li><li>копии учредительных документов;</li><li>копии документов, подтверждающие нахождение в штате на основном месте работы сотрудников с необходимой квалификацией;</li><li>копии правоустанавливающих документов на помещения, предназначенные для осуществления лицензируемого вида деятельности; </li><li>платежное поручение об оплате государственной пошлины;</li><li>копии технических паспортов и аттестатов соответствия защищаемых помещений требованиям безопасности информации; </li><li>копии технических паспортов автоматизированных систем, предназначенных для хранения и обработки конфиденциальной информации (с приложениями), актов классификации автоматизированных систем по требованиям безопасности информации, планов размещения основных и вспомогательных технических средств и систем, аттестатов соответствия автоматизированных систем требованиям безопасности информации или сертификатов соответствия автоматизированных систем требованиям безопасности информации, а также перечень защищаемых в автоматизированных системах ресурсов, описание технологического процесса обработки информации в автоматизированных системах; </li><li>копии документов, подтверждающих право соискателя лицензии на программы для электронно-вычислительных машин и базы данных, планируемые к использованию при осуществлении лицензируемого вида деятельности; </li><li>копии документов, содержащие сведения о наличии контрольно-измерительного, производственного и испытательного оборудования, средств защиты информации и средств контроля защищенности информации, необходимых для осуществления лицензируемого вида деятельности, а также документов, подтверждающих права соискателя лицензии на использование указанного оборудования, средств защиты информации и средств контроля защищенности информации; </li><li>копии документов, подтверждающие наличие на праве собственности технических документов, национальных стандартов и методических документов;</li><li>копии документов, подтверждающих наличие необходимой системы производственного контроля в соответствии с установленными стандартами (при выполнении работ вида 'в' - услуги по мониторингу информационной безопасности средств и систем информатизации).</li></ul></span>"
    },
    "image": {
        "data": {
            "base": "/images/fstek/",
            "file": "fstek_docs.jpeg",
            "alt": "Описание изображения",
            "position": "left"
        }
    },
    "position": {
        "data": "reverse"
    }
}
