{
    "title": {
        "data": "Подбор и поставка контрольно-измерительного оборудования"
    },
    "text": {
        "data": "<span>ФСТЭК обновил перечень контрольно-измерительного и испытательного оборудования (КИО), программных (программно-технических) средств, необходимых для выполнения работ и оказания услуг, установленных Положением о лицензировании деятельности по разработке и производству средств защиты конфиденциальной информации, утвержденного <a href='/files/fstek/postanovlenie_N_171.pdf' class='link' target='_blank'>постановлением Правительства Российской Федерации от 03.03.2012 г. № 171.</a></span><span>В случае нерационального подхода, со стороны соискателей лицензии к вопросу выбора необходимого комплекта КИО, можно существенно потерять, как время, так и деньги.</span><span>Узнать об актуальном перечне КИО, необходимого для получения лицензии ФСТЭК на деятельность по технической защите конфиденциальной информации и лицензии ФСТЭК на деятельность по разработке и производству средств защиты конфиденциальной информации, можно у наших специалистов, которые индивидуально подберут и сформируют для вас самое выгодное предложение <a href='/attestation/kio' class='link'>по поставке контрольно-измерительного оборудования.</a></span><p style='margin-top: 10px;'><a href='/attestation/kio' class='link'>Услуги по подбору и поставке контрольно-измерительного оборудования</a></p>"
    },
    "image": {
        "data": {
            "base": "/images/",
            "file": "info_learning.jpeg",
            "alt": "Описание изображения"
        }
    }
}
